<svg width="26" height="21" viewBox="0 0 26 21" fill="none" xmlns="http://www.w3.org/2000/svg">
<path d="M12.9761 20.5C12.9761 19.506 12.1737 18.7036 11.1796 18.7036H1V1.5H11.1796C12.1737 1.5 12.9761 2.3024 12.9761 3.29641C12.9761 2.3024 13.7785 1.5 14.7725 1.5H24.9521V18.7036H14.7725C13.7785 18.7036 12.9761 19.506 12.9761 20.5Z" stroke="#171321" stroke-width="1.19761" stroke-miterlimit="10"/>
<path d="M9.82036 6.20651H4.15564V13.9312H9.82036V6.20651Z" fill="#A989F5"/>
<path d="M3.57489 6.20651H9.82043V13.9312H4.15571V8.78139" stroke="#171321" stroke-width="1.19761" stroke-miterlimit="10"/>
<path d="M15.8085 6.20651H19.9402" stroke="#171321" stroke-width="1.19761" stroke-miterlimit="10"/>
<path d="M15.8085 10.0689H22.1198" stroke="#171321" stroke-width="1.19761" stroke-miterlimit="10"/>
<path d="M15.8085 13.9311H19.9402" stroke="#171321" stroke-width="1.19761" stroke-miterlimit="10"/>
<path d="M12.9761 3.29639V19.9192" stroke="#171321" stroke-width="1.19761" stroke-miterlimit="10"/>
</svg>
