<svg width="32" height="32" viewBox="0 0 32 32" fill="none" xmlns="http://www.w3.org/2000/svg">
<g clip-path="url(#clip0_3386_1731)">
<path d="M16 0.695679C14.6181 2.64278 12.6326 4.07979 10.3512 4.78409C8.06984 5.48838 5.61985 5.42063 3.38086 4.59133V15.5061C3.38086 23.0679 8.94608 29.1548 16 31.2974C23.0261 29.1548 28.6191 23.0679 28.6191 15.5061V4.59133C26.3801 5.42063 23.9301 5.48838 21.6487 4.78409C19.3673 4.07979 17.3819 2.64278 16 0.695679ZM25.1409 15.5131C25.1409 21.5652 20.7026 25.8226 16 27.6174C11.2974 25.8226 6.85912 21.5652 6.85912 15.5061V8.74437H7.15129C10.3621 8.7402 13.4784 7.65733 16 5.66959C18.5216 7.65733 21.6379 8.7402 24.8487 8.74437H25.1409V15.5131Z" fill="#CFC0FF"/>
<path d="M3.38085 17.7322C4.34135 17.7322 5.11998 16.9535 5.11998 15.993C5.11998 15.0325 4.34135 14.2539 3.38085 14.2539C2.42036 14.2539 1.64172 15.0325 1.64172 15.993C1.64172 16.9535 2.42036 17.7322 3.38085 17.7322Z" fill="#AC7FFF"/>
<path d="M28.5913 17.7322C29.5518 17.7322 30.3304 16.9535 30.3304 15.993C30.3304 15.0325 29.5518 14.2539 28.5913 14.2539C27.6308 14.2539 26.8522 15.0325 26.8522 15.993C26.8522 16.9535 27.6308 17.7322 28.5913 17.7322Z" fill="#AC7FFF"/>
<path d="M14.6087 19.1374C14.7912 19.1366 14.966 19.0642 15.0956 18.9357L20 14.0661C20.1139 13.933 20.1735 13.7618 20.1667 13.5868C20.16 13.4117 20.0874 13.2456 19.9635 13.1217C19.8396 12.9978 19.6735 12.9253 19.4984 12.9185C19.3234 12.9117 19.1522 12.9713 19.0191 13.0852L14.6087 17.4609L13.0087 15.8887C12.8783 15.7592 12.702 15.6864 12.5182 15.6864C12.3344 15.6864 12.1581 15.7592 12.0278 15.8887C11.9626 15.9534 11.9108 16.0303 11.8755 16.1151C11.8402 16.1999 11.822 16.2908 11.822 16.3826C11.822 16.4745 11.8402 16.5654 11.8755 16.6502C11.9108 16.7349 11.9626 16.8119 12.0278 16.8765L14.1148 18.9635C14.2505 19.0836 14.4277 19.146 14.6087 19.1374Z" fill="#341472"/>
<path d="M27.7565 20.5704C27.5867 20.5012 27.3964 20.5018 27.2271 20.5722C27.0577 20.6425 26.923 20.7769 26.8522 20.9461C25.848 23.24 24.3575 25.2884 22.4838 26.9496C20.61 28.6107 18.3977 29.845 16 30.567C10.0174 28.6678 5.45392 23.8748 4.35478 18.3096C4.35478 18.3096 4.35478 18.2609 4.35478 18.233C4.90059 18.0073 5.3464 17.5919 5.61007 17.0634C5.87374 16.5348 5.93749 15.9288 5.78958 15.357C5.64166 14.7852 5.29205 14.2861 4.80517 13.9517C4.31829 13.6174 3.72696 13.4702 3.14016 13.5375C2.55335 13.6047 2.01063 13.8818 1.612 14.3176C1.21338 14.7535 0.985716 15.3187 0.970978 15.9091C0.95624 16.4996 1.15542 17.0755 1.5318 17.5307C1.90819 17.9859 2.43642 18.2897 3.01913 18.3861C3.00874 18.4506 3.00874 18.5164 3.01913 18.5809C4.22957 24.7026 9.28 29.9548 15.8261 31.9583C15.9566 32.0044 16.099 32.0044 16.2296 31.9583C18.8623 31.1917 21.2941 29.8552 23.3523 28.0434C25.4106 26.2316 27.0448 23.989 28.1391 21.4748C28.208 21.3041 28.2063 21.1131 28.1346 20.9436C28.0629 20.7741 27.927 20.6399 27.7565 20.5704ZM2.33739 16C2.33739 15.7936 2.39859 15.5919 2.51325 15.4203C2.62791 15.2487 2.79088 15.1149 2.98155 15.036C3.17222 14.957 3.38203 14.9363 3.58444 14.9766C3.78686 15.0168 3.97279 15.1162 4.11872 15.2622C4.26465 15.4081 4.36404 15.594 4.4043 15.7964C4.44456 15.9988 4.4239 16.2087 4.34492 16.3993C4.26594 16.59 4.1322 16.753 3.9606 16.8676C3.789 16.9823 3.58725 17.0435 3.38087 17.0435C3.10412 17.0435 2.83871 16.9335 2.64302 16.7379C2.44733 16.5422 2.33739 16.2767 2.33739 16Z" fill="#341472"/>
<path d="M29.3147 13.6695V4.59129C29.3146 4.47913 29.2873 4.36869 29.2352 4.26936C29.1831 4.17004 29.1078 4.08478 29.0156 4.02085C28.9236 3.95627 28.8173 3.91493 28.7059 3.9004C28.5944 3.88586 28.4811 3.89855 28.3756 3.93737C26.2785 4.72652 23.9785 4.79598 21.8377 4.13482C19.6968 3.47366 17.8365 2.11942 16.5495 0.285198C16.485 0.196116 16.4003 0.123595 16.3024 0.0735837C16.2044 0.0235727 16.096 -0.00250244 15.986 -0.00250244C15.8761 -0.00250244 15.7677 0.0235727 15.6697 0.0735837C15.5718 0.123595 15.4871 0.196116 15.4226 0.285198C14.1356 2.11942 12.2753 3.47366 10.1344 4.13482C7.99354 4.79598 5.69358 4.72652 3.59648 3.93737C3.49099 3.89855 3.37767 3.88586 3.26621 3.9004C3.15475 3.91493 3.04848 3.95627 2.95648 4.02085C2.86433 4.08478 2.789 4.17004 2.73692 4.26936C2.68483 4.36869 2.65753 4.47913 2.65735 4.59129V10.6017C2.65735 10.7862 2.73064 10.9632 2.8611 11.0936C2.99156 11.2241 3.1685 11.2974 3.353 11.2974C3.5375 11.2974 3.71444 11.2241 3.8449 11.0936C3.97536 10.9632 4.04865 10.7862 4.04865 10.6017V5.5652C6.18894 6.1703 8.45918 6.13856 10.5817 5.47388C12.7043 4.8092 14.5871 3.54037 16 1.82259C17.4106 3.53519 19.2887 4.80076 21.4057 5.46524C23.5226 6.12972 25.7871 6.16445 27.9234 5.5652V13.6695C27.363 13.8366 26.8814 14.1999 26.5667 14.6929C26.2521 15.1859 26.1254 15.7756 26.2098 16.3543C26.2942 16.9331 26.5842 17.462 27.0266 17.8446C27.4689 18.2271 28.0342 18.4376 28.6191 18.4376C29.2039 18.4376 29.7692 18.2271 30.2116 17.8446C30.654 17.462 30.9439 16.9331 31.0284 16.3543C31.1128 15.7756 30.9861 15.1859 30.6714 14.6929C30.3568 14.1999 29.8752 13.8366 29.3147 13.6695ZM28.6191 17.0365C28.4127 17.0365 28.211 16.9753 28.0394 16.8606C27.8678 16.746 27.734 16.583 27.655 16.3923C27.5761 16.2017 27.5554 15.9919 27.5957 15.7895C27.6359 15.587 27.7353 15.4011 27.8812 15.2552C28.0272 15.1092 28.2131 15.0099 28.4155 14.9696C28.6179 14.9293 28.8277 14.95 29.0184 15.029C29.2091 15.108 29.372 15.2417 29.4867 15.4133C29.6014 15.5849 29.6626 15.7866 29.6626 15.993C29.6626 16.2698 29.5526 16.5352 29.3569 16.7309C29.1612 16.9266 28.8958 17.0365 28.6191 17.0365Z" fill="#341472"/>
</g>
<defs>
<clipPath id="clip0_3386_1731">
<rect width="32" height="32" fill="white"/>
</clipPath>
</defs>
</svg>
