<svg width="24" height="24" viewBox="0 0 24 24" fill="none" xmlns="http://www.w3.org/2000/svg">
<path d="M3.27002 15.9C4.51002 18.63 7.01002 22.02 12 23.46C18.89 21.46 21.04 15.74 21.66 13.22" stroke="white" stroke-miterlimit="10"/>
<path d="M21.8901 8V4.09C21.8901 4.09 15.3801 6.26 12.0001 1C8.61011 6.26 2.11011 4.09 2.11011 4.09V10.57" stroke="white" stroke-miterlimit="10"/>
<path d="M2 13.5C2.82843 13.5 3.5 12.8284 3.5 12C3.5 11.1716 2.82843 10.5 2 10.5C1.17157 10.5 0.5 11.1716 0.5 12C0.5 12.8284 1.17157 13.5 2 13.5Z" stroke="white" stroke-miterlimit="10"/>
<path d="M22 13.5C22.8284 13.5 23.5 12.8284 23.5 12C23.5 11.1716 22.8284 10.5 22 10.5C21.1716 10.5 20.5 11.1716 20.5 12C20.5 12.8284 21.1716 13.5 22 13.5Z" stroke="white" stroke-miterlimit="10"/>
<path d="M8.67993 12.31L10.7199 14.35L15.3199 9.75" stroke="white" stroke-miterlimit="10"/>
</svg>
