<svg width="32" height="32" viewBox="0 0 32 32" fill="none" xmlns="http://www.w3.org/2000/svg">
<g clip-path="url(#clip0_1145_6750)">
<path d="M26.5851 29.1159H3.03968C2.61611 29.115 2.20033 29.002 1.83469 28.7881C1.46905 28.5743 1.16661 28.2674 0.958174 27.8987C0.749742 27.5299 0.642766 27.1125 0.648142 26.689C0.653518 26.2655 0.771054 25.8509 0.988778 25.4876L12.9711 5.65045" stroke="#171321" stroke-width="1.27982" stroke-linecap="round" stroke-linejoin="round"/>
<path d="M13.9463 4.03148C14.1597 3.67845 14.4606 3.38648 14.8199 3.18383C15.1792 2.98117 15.5847 2.87469 15.9972 2.87469C16.4097 2.87469 16.8152 2.98117 17.1745 3.18383C17.5338 3.38648 17.8347 3.67845 18.0481 4.03148L31.0062 25.4876C31.224 25.8509 31.3415 26.2655 31.3469 26.689C31.3522 27.1125 31.2453 27.5299 31.0368 27.8987C30.8284 28.2674 30.526 28.5743 30.1603 28.7881C29.7947 29.0019 29.3789 29.115 28.9553 29.1159" stroke="#171321" stroke-width="1.27982" stroke-linecap="round" stroke-linejoin="round"/>
<path d="M20.7744 16.3176L19.4434 14.9738C19.2952 14.8259 19.0944 14.7429 18.8851 14.7429C18.6757 14.7429 18.4749 14.8259 18.3267 14.9738L14.2633 19.0372L12.7148 17.4855C12.5666 17.3376 12.3658 17.2545 12.1564 17.2545C11.9471 17.2545 11.7463 17.3376 11.5981 17.4855L10.2671 18.8165C10.1192 18.9646 10.0361 19.1654 10.0361 19.3748C10.0361 19.5841 10.1192 19.7849 10.2671 19.9331L13.3707 23.0367C13.6097 23.2702 13.9307 23.4009 14.2649 23.4009C14.5991 23.4009 14.9201 23.2702 15.1592 23.0367L20.7744 17.4183C20.9175 17.2708 20.9975 17.0734 20.9975 16.868C20.9975 16.6625 20.9175 16.4651 20.7744 16.3176Z" stroke="#171321" stroke-width="1.27982" stroke-linecap="round" stroke-linejoin="round"/>
</g>
<defs>
<clipPath id="clip0_1145_6750">
<rect width="31.9954" height="31.9954" fill="white"/>
</clipPath>
</defs>
</svg>
