<svg width="100" height="100" viewBox="0 0 100 100" fill="none" xmlns="http://www.w3.org/2000/svg">
<path d="M51 86.12L64.44 45H37.52L51 86.12Z" fill="#E24329"/>
<path d="M51 86.12L37.51 45H18.67L51 86.12Z" fill="#FC6D26"/>
<path d="M18.66 45H37.52L29.41 20.2C29.3179 19.9199 29.1398 19.676 28.9009 19.5031C28.6621 19.3302 28.3748 19.2372 28.08 19.2372C27.7851 19.2372 27.4978 19.3302 27.259 19.5031C27.0202 19.676 26.842 19.9199 26.75 20.2L18.66 45Z" fill="#E24329"/>
<path d="M51 86.12L64.44 45H83.3L51 86.12Z" fill="#FC6D26"/>
<path d="M83.29 45L87.38 57.51C87.5614 58.0646 87.5623 58.6625 87.3826 59.2177C87.2029 59.7728 86.8519 60.2568 86.38 60.6L51 86.12L83.29 45Z" fill="#FCA326"/>
<path d="M18.68 45L14.58 57.51C14.3986 58.0646 14.3977 58.6625 14.5774 59.2177C14.7571 59.7728 15.1081 60.2568 15.58 60.6L51 86.12L18.68 45Z" fill="#FCA326"/>
<path d="M83.3 45H64.44L72.54 20.22C72.6343 19.9435 72.8128 19.7034 73.0504 19.5335C73.288 19.3635 73.5728 19.2721 73.865 19.2721C74.1571 19.2721 74.442 19.3635 74.6796 19.5335C74.9172 19.7034 75.0957 19.9435 75.19 20.22L83.3 45Z" fill="#E24329"/>
<path d="M51.38 88.71C50.9582 88.7097 50.5474 88.5761 50.2061 88.3282C49.8649 88.0804 49.6107 87.731 49.48 87.33L35.71 45.45C35.6102 45.1493 35.5832 44.8292 35.6314 44.516C35.6795 44.2029 35.8014 43.9056 35.987 43.6488C36.1725 43.392 36.4164 43.1829 36.6986 43.0388C36.9808 42.8947 37.2931 42.8197 37.61 42.82H65.16C65.4768 42.8197 65.7892 42.8947 66.0714 43.0388C66.3535 43.1829 66.5974 43.392 66.783 43.6488C66.9685 43.9056 67.0904 44.2029 67.1386 44.516C67.1867 44.8292 67.1598 45.1493 67.06 45.45L53.28 87.33C53.1492 87.731 52.8951 88.0804 52.5538 88.3282C52.2126 88.5761 51.8017 88.7097 51.38 88.71ZM40.38 46.82L51.38 80.31L62.38 46.82H40.38Z" fill="#380D75"/>
<path d="M51.37 88.71C51.0719 88.7162 50.7763 88.6556 50.5046 88.5327C50.233 88.4099 49.9922 88.2279 49.8 88L16.74 46.06C16.507 45.7652 16.3618 45.4106 16.321 45.0371C16.2802 44.6635 16.3455 44.286 16.5094 43.9479C16.6732 43.6097 16.9291 43.3245 17.2475 43.125C17.566 42.9256 17.9342 42.8199 18.31 42.82H37.6C38.0218 42.8203 38.4326 42.9539 38.7739 43.2018C39.1151 43.4496 39.3693 43.799 39.5 44.2L53.27 86.08C53.3698 86.3807 53.3967 86.7008 53.3486 87.014C53.3004 87.3271 53.1786 87.6244 52.993 87.8812C52.8075 88.138 52.5636 88.3471 52.2814 88.4912C51.9992 88.6353 51.6868 88.7103 51.37 88.71ZM22.44 46.82L45.94 76.6L36.15 46.82H22.44Z" fill="#380D75"/>
<path d="M51.36 88.72C50.9443 88.7202 50.5388 88.5909 50.2 88.35L14 62.34C13.1648 61.7488 12.5418 60.9047 12.2231 59.9323C11.9044 58.96 11.9068 57.9109 12.23 56.94L16.4 44.21C16.5134 43.8669 16.7177 43.5609 16.9911 43.3246C17.2645 43.0883 17.5968 42.9304 17.9527 42.8679C18.3086 42.8053 18.6748 42.8403 19.0124 42.9692C19.35 43.0982 19.6464 43.3161 19.87 43.6L52.94 85.48C53.1735 85.7755 53.3189 86.1309 53.3593 86.5054C53.3997 86.8799 53.3336 87.2581 53.1685 87.5967C53.0034 87.9352 52.7461 88.2202 52.4261 88.419C52.1062 88.6177 51.7367 88.722 51.36 88.72ZM19 49L16 58.19C15.9475 58.3524 15.9483 58.5273 16.0022 58.6893C16.0562 58.8512 16.1606 58.9916 16.3 59.09L41 76.82L19 49Z" fill="#380D75"/>
<path d="M37.61 46.84H18.31C17.9931 46.8403 17.6808 46.7653 17.3986 46.6212C17.1164 46.4771 16.8725 46.268 16.687 46.0112C16.5014 45.7544 16.3796 45.4571 16.3314 45.144C16.2832 44.8308 16.3102 44.5107 16.41 44.21L24.68 19C24.9072 18.3026 25.3525 17.6968 25.9503 17.2718C26.5481 16.8469 27.2667 16.6254 28 16.64C28.7151 16.6416 29.411 16.8714 29.9865 17.2959C30.5621 17.7203 30.9872 18.3173 31.2 19L39.51 44.22C39.6098 44.5207 39.6367 44.8408 39.5886 45.154C39.5404 45.4671 39.4185 45.7644 39.233 46.0212C39.0475 46.278 38.8036 46.4871 38.5214 46.6312C38.2392 46.7753 37.9268 46.8503 37.61 46.85V46.84ZM21.07 42.84H34.85L27.94 21.84L21.07 42.84Z" fill="#380D75"/>
<path d="M51.38 88.71C51.0517 88.7084 50.7289 88.6259 50.44 88.47C50.0168 88.2551 49.6839 87.8966 49.5007 87.4588C49.3175 87.021 49.296 86.5322 49.44 86.08L63.26 44.2C63.3907 43.799 63.6449 43.4496 63.9861 43.2018C64.3274 42.9539 64.7382 42.8203 65.16 42.82H84.46C84.8413 42.8246 85.2133 42.9382 85.5323 43.1472C85.8512 43.3563 86.1037 43.6522 86.26 44C86.4094 44.3343 86.4641 44.7031 86.4183 45.0664C86.3724 45.4296 86.2277 45.7733 86 46.06L53 88C52.8025 88.2346 52.5536 88.4207 52.2727 88.5438C51.9918 88.6669 51.6864 88.7238 51.38 88.71ZM66.6 46.82L56.81 76.61L80.33 46.82H66.6Z" fill="#380D75"/>
<path d="M51.38 88.71C51.1106 88.709 50.8442 88.6535 50.5967 88.547C50.3493 88.4404 50.1259 88.285 49.94 88.09C49.6063 87.7422 49.4093 87.2857 49.3855 86.8043C49.3616 86.3229 49.5123 85.8491 49.81 85.47L82.88 43.6C83.1032 43.3177 83.3985 43.1009 83.7347 42.9725C84.0708 42.844 84.4354 42.8086 84.79 42.87C85.147 42.9312 85.4807 43.0881 85.7554 43.3241C86.0302 43.5601 86.2357 43.8663 86.35 44.21L90.54 56.94C90.86 57.9111 90.8608 58.9592 90.5423 59.9308C90.2238 60.9025 89.6027 61.7467 88.77 62.34L52.55 88.34C52.2084 88.5829 51.7991 88.7123 51.38 88.71ZM83.71 49L61.71 76.81L86.44 59.09C86.5795 58.9916 86.6838 58.8512 86.7378 58.6893C86.7918 58.5273 86.7925 58.3524 86.74 58.19L83.71 49Z" fill="#380D75"/>
<path d="M84.46 46.84H65.15C64.8332 46.8403 64.5208 46.7653 64.2386 46.6212C63.9564 46.4771 63.7125 46.268 63.527 46.0112C63.3415 45.7544 63.2196 45.4571 63.1714 45.144C63.1233 44.8308 63.1502 44.5107 63.25 44.21L71.55 19C71.7661 18.3143 72.1965 17.7159 72.7779 17.2929C73.3593 16.8699 74.061 16.6446 74.78 16.65C75.5038 16.6494 76.2096 16.8758 76.798 17.2974C77.3864 17.7189 77.8278 18.3144 78.06 19L86.36 44.24C86.4598 44.5407 86.4867 44.8608 86.4386 45.174C86.3904 45.4871 86.2686 45.7844 86.083 46.0412C85.8975 46.298 85.6536 46.5071 85.3714 46.6512C85.0892 46.7953 84.7768 46.8703 84.46 46.87V46.84ZM67.92 42.84H81.69L74.8 21.84L67.92 42.84Z" fill="#380D75"/>
<path d="M89.52 18.77C88.9896 18.77 88.4809 18.5593 88.1058 18.1842C87.7307 17.8091 87.52 17.3004 87.52 16.77V2C87.52 1.46957 87.7307 0.960859 88.1058 0.585786C88.4809 0.210714 88.9896 0 89.52 0C90.0505 0 90.5592 0.210714 90.9342 0.585786C91.3093 0.960859 91.52 1.46957 91.52 2V16.77C91.52 17.3004 91.3093 17.8091 90.9342 18.1842C90.5592 18.5593 90.0505 18.77 89.52 18.77Z" fill="#380D75"/>
<path d="M96.86 11.38H82.17C81.6395 11.38 81.1308 11.1693 80.7558 10.7942C80.3807 10.4191 80.17 9.91043 80.17 9.38C80.17 8.84957 80.3807 8.34086 80.7558 7.96579C81.1308 7.59071 81.6395 7.38 82.17 7.38H96.86C97.3904 7.38 97.8991 7.59071 98.2742 7.96579C98.6493 8.34086 98.86 8.84957 98.86 9.38C98.86 9.91043 98.6493 10.4191 98.2742 10.7942C97.8991 11.1693 97.3904 11.38 96.86 11.38Z" fill="#380D75"/>
<path d="M18.67 100C18.1395 100 17.6308 99.7893 17.2558 99.4142C16.8807 99.0391 16.67 98.5304 16.67 98V83.23C16.67 82.6996 16.8807 82.1909 17.2558 81.8158C17.6308 81.4407 18.1395 81.23 18.67 81.23C19.2004 81.23 19.7091 81.4407 20.0842 81.8158C20.4593 82.1909 20.67 82.6996 20.67 83.23V98C20.67 98.5304 20.4593 99.0391 20.0842 99.4142C19.7091 99.7893 19.2004 100 18.67 100Z" fill="#380D75"/>
<path d="M26 92.62H11.32C10.7896 92.62 10.2809 92.4093 9.90579 92.0342C9.53072 91.6591 9.32001 91.1504 9.32001 90.62C9.32001 90.0896 9.53072 89.5809 9.90579 89.2058C10.2809 88.8307 10.7896 88.62 11.32 88.62H26C26.5304 88.62 27.0391 88.8307 27.4142 89.2058C27.7893 89.5809 28 90.0896 28 90.62C28 91.1504 27.7893 91.6591 27.4142 92.0342C27.0391 92.4093 26.5304 92.62 26 92.62Z" fill="#380D75"/>
<path d="M6.40002 22.6C5.86959 22.6 5.36088 22.3893 4.98581 22.0142C4.61074 21.6391 4.40002 21.1304 4.40002 20.6V11.84C4.40002 11.3096 4.61074 10.8009 4.98581 10.4258C5.36088 10.0507 5.86959 9.84 6.40002 9.84C6.93046 9.84 7.43917 10.0507 7.81424 10.4258C8.18931 10.8009 8.40002 11.3096 8.40002 11.84V20.6C8.40002 21.1304 8.18931 21.6391 7.81424 22.0142C7.43917 22.3893 6.93046 22.6 6.40002 22.6Z" fill="#380D75"/>
<path d="M10.76 18.22H2C1.46957 18.22 0.960859 18.0093 0.585786 17.6342C0.210714 17.2591 0 16.7504 0 16.22C0 15.6896 0.210714 15.1809 0.585786 14.8058C0.960859 14.4307 1.46957 14.22 2 14.22H10.73C11.2604 14.22 11.7691 14.4307 12.1442 14.8058C12.5193 15.1809 12.73 15.6896 12.73 16.22C12.73 16.7504 12.5193 17.2591 12.1442 17.6342C11.7691 18.0093 11.2604 18.22 10.73 18.22H10.76Z" fill="#380D75"/>
<path d="M93.64 90.79C93.1096 90.79 92.6009 90.5793 92.2258 90.2042C91.8507 89.8291 91.64 89.3204 91.64 88.79V80C91.64 79.4696 91.8507 78.9609 92.2258 78.5858C92.6009 78.2107 93.1096 78 93.64 78C94.1704 78 94.6792 78.2107 95.0542 78.5858C95.4293 78.9609 95.64 79.4696 95.64 80V88.76C95.644 89.0252 95.5952 89.2885 95.4965 89.5346C95.3977 89.7807 95.2511 90.0047 95.0649 90.1936C94.8788 90.3826 94.657 90.5326 94.4124 90.6349C94.1677 90.7373 93.9052 90.79 93.64 90.79Z" fill="#380D75"/>
<path d="M98 86.41H89.28C88.7496 86.41 88.2409 86.1993 87.8658 85.8242C87.4907 85.4491 87.28 84.9404 87.28 84.41C87.28 83.8796 87.4907 83.3709 87.8658 82.9958C88.2409 82.6207 88.7496 82.41 89.28 82.41H98C98.5305 82.41 99.0392 82.6207 99.4142 82.9958C99.7893 83.3709 100 83.8796 100 84.41C100 84.9404 99.7893 85.4491 99.4142 85.8242C99.0392 86.1993 98.5305 86.41 98 86.41Z" fill="#380D75"/>
<path d="M94.87 42.33C94.3396 42.33 93.8308 42.1193 93.4558 41.7442C93.0807 41.3691 92.87 40.8604 92.87 40.33C92.8601 40.2002 92.8601 40.0698 92.87 39.94C92.8994 39.8135 92.9396 39.6897 92.99 39.57C93.0399 39.4484 93.1001 39.3313 93.17 39.22C93.2453 39.1136 93.3289 39.0133 93.42 38.92C93.8024 38.5585 94.3087 38.3571 94.835 38.3571C95.3612 38.3571 95.8675 38.5585 96.25 38.92C96.6256 39.2933 96.8377 39.8004 96.84 40.33C96.8402 40.5939 96.7882 40.8553 96.6869 41.099C96.5856 41.3427 96.4372 41.5639 96.25 41.75C95.8824 42.1147 95.3877 42.3226 94.87 42.33Z" fill="#380D75"/>
<path d="M66.53 96.81C66.2661 96.8102 66.0048 96.7582 65.761 96.6569C65.5173 96.5557 65.2961 96.4072 65.11 96.22C64.9241 96.0343 64.7765 95.8137 64.6759 95.5709C64.5752 95.3281 64.5234 95.0678 64.5234 94.805C64.5234 94.5422 64.5752 94.2819 64.6759 94.0391C64.7765 93.7963 64.9241 93.5757 65.11 93.39C65.4947 93.0329 66.0002 92.8345 66.525 92.8345C67.0499 92.8345 67.5553 93.0329 67.94 93.39C68.2215 93.6691 68.4136 94.0256 68.492 94.4142C68.5705 94.8027 68.5317 95.2058 68.3806 95.5723C68.2295 95.9388 67.973 96.2521 67.6435 96.4725C67.314 96.6928 66.9264 96.8103 66.53 96.81Z" fill="#380D75"/>
<path d="M1.99999 69.84C1.47041 69.8378 0.963342 69.6256 0.589991 69.25C0.404038 69.0643 0.25652 68.8437 0.155872 68.6009C0.0552233 68.3581 0.00341797 68.0978 0.00341797 67.835C0.00341797 67.5722 0.0552233 67.3119 0.155872 67.0691C0.25652 66.8263 0.404038 66.6057 0.589991 66.42C0.973032 66.0636 1.47681 65.8655 1.99999 65.8655C2.52317 65.8655 3.02695 66.0636 3.40999 66.42C3.59594 66.6057 3.74346 66.8263 3.84411 67.0691C3.94476 67.3119 3.99656 67.5722 3.99656 67.835C3.99656 68.0978 3.94476 68.3581 3.84411 68.6009C3.74346 68.8437 3.59594 69.0643 3.40999 69.25C3.03664 69.6256 2.52957 69.8378 1.99999 69.84Z" fill="#380D75"/>
</svg>
