<svg width="32" height="32" viewBox="0 0 32 32" fill="none" xmlns="http://www.w3.org/2000/svg">
<g clip-path="url(#clip0_110_559)">
<path d="M8.24956 9.74081C9.49728 9.74081 10.5088 8.72933 10.5088 7.48161C10.5088 6.23389 9.49728 5.22241 8.24956 5.22241C7.00184 5.22241 5.99036 6.23389 5.99036 7.48161C5.99036 8.72933 7.00184 9.74081 8.24956 9.74081Z" fill="#AC7FFF"/>
<path d="M8.24956 16.0864C10.0644 16.0891 11.824 15.4626 13.2288 14.3136C12.6085 13.6032 11.8434 13.0339 10.9849 12.6437C10.1263 12.2536 9.19419 12.0518 8.25116 12.0518C7.30813 12.0518 6.37602 12.2536 5.51746 12.6437C4.65891 13.0339 3.8938 13.6032 3.27356 14.3136C4.67735 15.4621 6.43581 16.0886 8.24956 16.0864Z" fill="#AC7FFF"/>
<path d="M23.7568 24.9727C25.0045 24.9727 26.016 23.9613 26.016 22.7135C26.016 21.4658 25.0045 20.4543 23.7568 20.4543C22.509 20.4543 21.4976 21.4658 21.4976 22.7135C21.4976 23.9613 22.509 24.9727 23.7568 24.9727Z" fill="#FCA121"/>
<path d="M23.7568 31.3184C25.5705 31.3206 27.329 30.6941 28.7328 29.5456C28.112 28.8362 27.3467 28.2677 26.4882 27.8781C25.6297 27.4886 24.6979 27.2871 23.7552 27.2871C22.8125 27.2871 21.8807 27.4886 21.0222 27.8781C20.1637 28.2677 19.3984 28.8362 18.7776 29.5456C20.1826 30.6941 21.9421 31.3206 23.7568 31.3184Z" fill="#FCA121"/>
<path d="M26.0096 11.8016C25.8399 11.8016 25.6771 11.7341 25.5571 11.6141C25.4371 11.4941 25.3696 11.3313 25.3696 11.1616V6.58237H20.8C20.6303 6.58237 20.4675 6.51494 20.3475 6.39492C20.2275 6.27489 20.16 6.11211 20.16 5.94237C20.16 5.77263 20.2275 5.60984 20.3475 5.48982C20.4675 5.3698 20.6303 5.30237 20.8 5.30237H26.0096C26.1794 5.30237 26.3422 5.3698 26.4622 5.48982C26.5822 5.60984 26.6496 5.77263 26.6496 5.94237V11.1616C26.6496 11.3313 26.5822 11.4941 26.4622 11.6141C26.3422 11.7341 26.1794 11.8016 26.0096 11.8016Z" fill="#380D75"/>
<path d="M11.4944 26.6816H5.90721C5.73747 26.6816 5.57469 26.6142 5.45466 26.4942C5.33464 26.3742 5.26721 26.2114 5.26721 26.0416V20.8C5.26721 20.6303 5.33464 20.4675 5.45466 20.3475C5.57469 20.2275 5.73747 20.16 5.90721 20.16C6.07695 20.16 6.23974 20.2275 6.35976 20.3475C6.47978 20.4675 6.54721 20.6303 6.54721 20.8V25.4016H11.4944C11.6642 25.4016 11.8269 25.4691 11.947 25.5891C12.067 25.7091 12.1344 25.8719 12.1344 26.0416C12.1344 26.2114 12.067 26.3742 11.947 26.4942C11.8269 26.6142 11.6642 26.6816 11.4944 26.6816Z" fill="#380D75"/>
<path d="M8.24319 16.5312C6.25122 16.5301 4.32691 15.8084 2.82559 14.4992C2.75114 14.4328 2.69155 14.3515 2.65076 14.2605C2.60996 14.1695 2.58887 14.0709 2.58887 13.9712C2.58887 13.8715 2.60996 13.7729 2.65076 13.6819C2.69155 13.5909 2.75114 13.5095 2.82559 13.4432C4.33502 12.1273 6.27215 11.4063 8.27465 11.4151C10.2771 11.424 12.2078 12.162 13.7056 13.4912C13.7739 13.5512 13.8286 13.625 13.8661 13.7077C13.9036 13.7905 13.9231 13.8803 13.9232 13.9712C13.9226 14.0615 13.9029 14.1507 13.8654 14.2329C13.8279 14.3151 13.7735 14.3884 13.7056 14.448C12.2019 15.7887 10.2578 16.5301 8.24319 16.5312ZM4.22399 13.9712C5.39928 14.8041 6.80426 15.2515 8.24479 15.2515C9.68532 15.2515 11.0903 14.8041 12.2656 13.9712C11.0903 13.1382 9.68532 12.6908 8.24479 12.6908C6.80426 12.6908 5.39928 13.1382 4.22399 13.9712Z" fill="#380D75"/>
<path d="M8.24324 10.56C7.63629 10.56 7.04297 10.38 6.53831 10.0428C6.03364 9.70557 5.64031 9.22629 5.40804 8.66554C5.17577 8.10479 5.115 7.48776 5.23341 6.89247C5.35182 6.29718 5.64409 5.75037 6.07327 5.3212C6.50245 4.89202 7.04926 4.59974 7.64455 4.48133C8.23984 4.36292 8.85687 4.42369 9.41762 4.65596C9.97837 4.88823 10.4576 5.28157 10.7949 5.78623C11.1321 6.29089 11.312 6.88421 11.312 7.49116C11.3112 8.3048 10.9876 9.08487 10.4123 9.6602C9.83695 10.2355 9.05688 10.5591 8.24324 10.56ZM8.24324 5.70236C7.88945 5.70236 7.5436 5.80728 7.24944 6.00383C6.95527 6.20039 6.72599 6.47976 6.5906 6.80662C6.45521 7.13348 6.41979 7.49315 6.48881 7.84014C6.55783 8.18714 6.7282 8.50587 6.97837 8.75604C7.22854 9.00621 7.54727 9.17657 7.89426 9.24559C8.24126 9.31461 8.60092 9.27919 8.92778 9.1438C9.25464 9.00841 9.53402 8.77914 9.73057 8.48497C9.92713 8.1908 10.032 7.84496 10.032 7.49116C10.0329 7.25557 9.98726 7.02212 9.89778 6.80417C9.8083 6.58622 9.67672 6.38806 9.51057 6.22102C9.34443 6.05398 9.14697 5.92135 8.92951 5.8307C8.71204 5.74006 8.47884 5.69318 8.24324 5.69276V5.70236Z" fill="#380D75"/>
<path d="M1.71839 12.8256C1.6067 12.8249 1.49713 12.795 1.40057 12.7389C1.30402 12.6827 1.22383 12.6023 1.16799 12.5056C0.420633 11.2544 0.0183376 9.82748 0.00209879 8.37021C-0.0141401 6.91293 0.356258 5.4774 1.07555 4.2099C1.79483 2.9424 2.8373 1.88826 4.0967 1.15489C5.3561 0.421527 6.78742 0.0351562 8.24479 0.0351562C9.70215 0.0351562 11.1335 0.421527 12.3929 1.15489C13.6523 1.88826 14.6947 2.9424 15.414 4.2099C16.1333 5.4774 16.5037 6.91293 16.4875 8.37021C16.4712 9.82748 16.0689 11.2544 15.3216 12.5056C15.2342 12.6515 15.0923 12.7568 14.9273 12.7982C14.7623 12.8396 14.5876 12.8138 14.4416 12.7264C14.2956 12.6389 14.1903 12.4971 14.1489 12.3321C14.1075 12.1671 14.1334 11.9923 14.2208 11.8464C14.8522 10.7895 15.1921 9.58412 15.2059 8.35308C15.2197 7.12203 14.9069 5.90934 14.2993 4.83858C13.6918 3.76783 12.8112 2.87731 11.7473 2.25777C10.6834 1.63822 9.47431 1.31182 8.24319 1.31182C7.01207 1.31182 5.80295 1.63822 4.73908 2.25777C3.6752 2.87731 2.7946 3.76783 2.18703 4.83858C1.57945 5.90934 1.26662 7.12203 1.28042 8.35308C1.29422 9.58412 1.63416 10.7895 2.26559 11.8464C2.32147 11.9431 2.35104 12.0529 2.35135 12.1646C2.35166 12.2764 2.32271 12.3862 2.26737 12.4833C2.21203 12.5804 2.13223 12.6613 2.03592 12.718C1.93961 12.7747 1.83013 12.8051 1.71839 12.8064V12.8256Z" fill="#380D75"/>
<path d="M23.7568 31.9328C21.7395 31.9338 19.7921 31.1936 18.2848 29.8528C18.2167 29.7928 18.1622 29.7189 18.1248 29.6362C18.0874 29.5534 18.0681 29.4636 18.0681 29.3728C18.0681 29.282 18.0874 29.1923 18.1248 29.1095C18.1622 29.0268 18.2167 28.9529 18.2848 28.8928C19.7925 27.5527 21.7396 26.8125 23.7568 26.8125C25.774 26.8125 27.7211 27.5527 29.2288 28.8928C29.2969 28.9529 29.3514 29.0268 29.3888 29.1095C29.4262 29.1923 29.4455 29.282 29.4455 29.3728C29.4455 29.4636 29.4262 29.5534 29.3888 29.6362C29.3514 29.7189 29.2969 29.7928 29.2288 29.8528C27.7212 31.1931 25.774 31.9332 23.7568 31.9328ZM19.7344 29.3728C20.9097 30.2058 22.3147 30.6532 23.7552 30.6532C25.1957 30.6532 26.6007 30.2058 27.776 29.3728C26.5998 28.5421 25.1952 28.0961 23.7552 28.0961C22.3152 28.0961 20.9106 28.5421 19.7344 29.3728Z" fill="#380D75"/>
<path d="M23.7568 25.9521C23.1498 25.9521 22.5565 25.7721 22.0519 25.4349C21.5472 25.0977 21.1539 24.6184 20.9216 24.0576C20.6893 23.4969 20.6285 22.8799 20.747 22.2846C20.8654 21.6893 21.1576 21.1425 21.5868 20.7133C22.016 20.2841 22.5628 19.9918 23.1581 19.8734C23.7534 19.755 24.3704 19.8158 24.9312 20.0481C25.4919 20.2803 25.9712 20.6737 26.3084 21.1783C26.6456 21.683 26.8256 22.2763 26.8256 22.8833C26.8247 23.6969 26.5012 24.477 25.9258 25.0523C25.3505 25.6276 24.5704 25.9512 23.7568 25.9521ZM23.7568 21.0977C23.4029 21.0977 23.0569 21.2026 22.7627 21.3993C22.4684 21.596 22.2391 21.8756 22.1038 22.2027C21.9686 22.5297 21.9333 22.8895 22.0026 23.2366C22.0719 23.5837 22.2426 23.9024 22.4931 24.1525C22.7435 24.4025 23.0626 24.5726 23.4098 24.6413C23.757 24.7099 24.1168 24.6741 24.4436 24.5382C24.7704 24.4023 25.0495 24.1725 25.2457 23.8779C25.4418 23.5833 25.5462 23.2372 25.5456 22.8833C25.5447 22.4094 25.3559 21.9552 25.0205 21.6205C24.6852 21.2857 24.2307 21.0977 23.7568 21.0977Z" fill="#380D75"/>
<path d="M17.2288 28.2304C17.1171 28.2297 17.0075 28.1998 16.911 28.1437C16.8144 28.0875 16.7342 28.0071 16.6784 27.9104C15.9297 26.6588 15.5263 25.2311 15.5093 23.7728C15.4924 22.3146 15.8625 20.8778 16.5818 19.6092C17.3012 18.3406 18.3442 17.2855 19.6043 16.5514C20.8645 15.8173 22.2968 15.4305 23.7552 15.4305C25.2136 15.4305 26.6459 15.8173 27.906 16.5514C29.1662 17.2855 30.2092 18.3406 30.9285 19.6092C31.6479 20.8778 32.018 22.3146 32.001 23.7728C31.9841 25.2311 31.5807 26.6588 30.832 27.9104C30.7962 27.9936 30.7431 28.0683 30.6763 28.1294C30.6095 28.1906 30.5304 28.2369 30.4444 28.2653C30.3583 28.2936 30.2672 28.3034 30.1772 28.2939C30.0871 28.2844 30 28.2559 29.9217 28.2103C29.8435 28.1646 29.7758 28.1029 29.7232 28.0292C29.6705 27.9554 29.6342 27.8714 29.6165 27.7825C29.5987 27.6937 29.6001 27.6021 29.6204 27.5138C29.6408 27.4255 29.6796 27.3425 29.7344 27.2704C30.3652 26.2135 30.7046 25.0082 30.718 23.7774C30.7314 22.5467 30.4183 21.3343 29.8106 20.2639C29.2029 19.1935 28.3223 18.3034 27.2586 17.6841C26.1949 17.0648 24.986 16.7385 23.7552 16.7385C22.5243 16.7385 21.3155 17.0648 20.2518 17.6841C19.188 18.3034 18.3075 19.1935 17.6998 20.2639C17.0921 21.3343 16.779 22.5467 16.7924 23.7774C16.8058 25.0082 17.1452 26.2135 17.776 27.2704C17.8631 27.4156 17.8891 27.5894 17.8483 27.7537C17.8075 27.9181 17.7033 28.0595 17.5584 28.1472C17.458 28.2041 17.3441 28.2329 17.2288 28.2304Z" fill="#380D75"/>
</g>
<defs>
<clipPath id="clip0_110_559">
<rect width="32" height="32" fill="white"/>
</clipPath>
</defs>
</svg>
