<svg width="32" height="32" viewBox="0 0 32 32" fill="none" xmlns="http://www.w3.org/2000/svg">
<g clip-path="url(#clip0_110_522)">
<path d="M6.59841 7.18399C7.59694 7.18399 8.40641 6.37452 8.40641 5.37599C8.40641 4.37746 7.59694 3.56799 6.59841 3.56799C5.59988 3.56799 4.79041 4.37746 4.79041 5.37599C4.79041 6.37452 5.59988 7.18399 6.59841 7.18399Z" fill="#AC7FFF"/>
<path d="M6.59835 12.2624C8.05081 12.2644 9.45893 11.7622 10.5824 10.8416C10.0859 10.2737 9.47365 9.81852 8.78679 9.50666C8.09992 9.19479 7.3543 9.03345 6.59995 9.03345C5.84561 9.03345 5.09998 9.19479 4.41312 9.50666C3.72626 9.81852 3.11404 10.2737 2.61755 10.8416C3.74013 11.7615 5.147 12.2637 6.59835 12.2624Z" fill="#AC7FFF"/>
<path d="M25.3536 26.6656C26.3663 26.6656 27.1872 25.8447 27.1872 24.832C27.1872 23.8193 26.3663 22.9984 25.3536 22.9984C24.341 22.9984 23.52 23.8193 23.52 24.832C23.52 25.8447 24.341 26.6656 25.3536 26.6656Z" fill="#FCA121"/>
<path d="M25.3792 31.4912C26.8514 31.4924 28.2784 30.9836 29.4176 30.0512C28.914 29.4751 28.2929 29.0134 27.5961 28.6971C26.8993 28.3807 26.1429 28.217 25.3776 28.217C24.6124 28.217 23.856 28.3807 23.1592 28.6971C22.4624 29.0134 21.8413 29.4751 21.3376 30.0512C22.4777 30.9843 23.906 31.4932 25.3792 31.4912Z" fill="#FCA121"/>
<path d="M30.6176 19.6864C30.5761 19.6912 30.5342 19.6912 30.4928 19.6864C30.3265 19.6532 30.1802 19.5554 30.086 19.4144C29.9918 19.2734 29.9574 19.1008 29.9904 18.9344C30.1708 18.012 30.2619 17.0744 30.2624 16.1344C30.2615 12.3237 28.7482 8.66918 26.0549 5.97341C23.3615 3.27763 19.7083 1.76109 15.8976 1.75685C14.9849 1.75674 14.0742 1.84245 13.1776 2.01285C13.095 2.02882 13.0101 2.02836 12.9277 2.01152C12.8453 1.99467 12.767 1.96176 12.6973 1.91466C12.6277 1.86756 12.5679 1.8072 12.5216 1.73702C12.4752 1.66684 12.4431 1.58822 12.4272 1.50565C12.4112 1.42307 12.4117 1.33816 12.4285 1.25576C12.4454 1.17336 12.4783 1.09508 12.5254 1.0254C12.5725 0.955721 12.6328 0.895999 12.703 0.849645C12.7732 0.803292 12.8518 0.771215 12.9344 0.755246C15.453 0.271975 18.0518 0.414759 20.5023 1.17105C22.9528 1.92734 25.1801 3.27398 26.9883 5.09262C28.7965 6.91125 30.1303 9.1462 30.8725 11.601C31.6147 14.0559 31.7425 16.6554 31.2448 19.1712C31.2159 19.3164 31.1377 19.4471 31.0233 19.541C30.9089 19.6349 30.7656 19.6863 30.6176 19.6864Z" fill="#380D75"/>
<path d="M15.8976 31.7664C13.5354 31.765 11.2041 31.229 9.07852 30.1986C6.95291 29.1682 5.08804 27.6702 3.62365 25.8167C2.15925 23.9632 1.13331 21.8023 0.622685 19.4959C0.112062 17.1896 0.130001 14.7976 0.675158 12.4992C0.694909 12.4175 0.730565 12.3404 0.780091 12.2725C0.829617 12.2045 0.892043 12.147 0.963804 12.1031C1.03556 12.0593 1.11526 12.03 1.19833 12.017C1.2814 12.004 1.36622 12.0074 1.44796 12.0272C1.52969 12.0469 1.60674 12.0826 1.67469 12.1321C1.74265 12.1817 1.80018 12.2441 1.84401 12.3158C1.88784 12.3876 1.91711 12.4673 1.93014 12.5504C1.94317 12.6334 1.93971 12.7183 1.91996 12.8C1.42096 14.91 1.40568 17.1056 1.87524 19.2224C2.3448 21.3392 3.28704 23.3224 4.63146 25.0236C5.97587 26.7247 7.68763 28.0997 9.63862 29.0457C11.5896 29.9918 13.7293 30.4843 15.8976 30.4864C16.8648 30.488 17.8298 30.3915 18.7776 30.1984C18.9439 30.1644 19.1169 30.198 19.2585 30.2916C19.4002 30.3852 19.4988 30.5313 19.5328 30.6976C19.5667 30.8639 19.5332 31.037 19.4396 31.1786C19.3459 31.3202 19.1999 31.4188 19.0336 31.4528C18.0014 31.6624 16.9508 31.7674 15.8976 31.7664Z" fill="#380D75"/>
<path d="M14.72 31.584C14.587 31.584 14.4572 31.5426 14.3488 31.4656C11.9041 29.7219 9.91051 27.4202 8.53363 24.7516C7.15676 22.083 6.43628 19.1244 6.43201 16.1216C6.43201 15.8656 6.43201 15.6096 6.43201 15.3536C6.4388 15.1838 6.51274 15.0237 6.63756 14.9085C6.76238 14.7933 6.92787 14.7324 7.09761 14.7392C7.26735 14.7459 7.42743 14.8199 7.54266 14.9447C7.65788 15.0695 7.7188 15.235 7.71201 15.4048C7.71201 15.6416 7.71201 15.8816 7.71201 16.1216C7.71417 18.9186 8.38294 21.6749 9.6629 24.1619C10.9428 26.6489 12.7971 28.795 15.072 30.4224C15.1814 30.5 15.2636 30.6101 15.3071 30.7371C15.3505 30.864 15.3529 31.0014 15.314 31.1298C15.2751 31.2582 15.1968 31.3712 15.0902 31.4527C14.9836 31.5342 14.8541 31.5801 14.72 31.584Z" fill="#380D75"/>
<path d="M24.6592 18.304H24.6048C24.5198 18.2972 24.4369 18.2735 24.3612 18.2342C24.2855 18.195 24.2183 18.1409 24.1638 18.0754C24.1092 18.0098 24.0683 17.9339 24.0435 17.8523C24.0187 17.7707 24.0104 17.6849 24.0192 17.6C24.0608 17.1104 24.0832 16.608 24.0832 16.112C24.0796 13.283 23.3932 10.4967 22.0823 7.98972C20.7714 5.48274 18.8748 3.3292 16.5536 1.71204C16.4809 1.66587 16.4183 1.60552 16.3696 1.53459C16.3208 1.46367 16.2868 1.38362 16.2696 1.29926C16.2525 1.21489 16.2526 1.12794 16.2698 1.04359C16.2871 0.959252 16.3212 0.879258 16.3701 0.808399C16.4189 0.73754 16.4816 0.677273 16.5544 0.631205C16.6271 0.585137 16.7084 0.554215 16.7933 0.540289C16.8783 0.526363 16.9652 0.52972 17.0488 0.550159C17.1324 0.570598 17.2111 0.607699 17.28 0.659241C19.7718 2.39626 21.8077 4.70885 23.2149 7.40069C24.6221 10.0925 25.3591 13.0842 25.3632 16.1216C25.3632 16.6528 25.3408 17.1904 25.296 17.7216C25.2816 17.8807 25.2084 18.0286 25.0905 18.1363C24.9727 18.2441 24.8189 18.3039 24.6592 18.304Z" fill="#380D75"/>
<path d="M15.8976 31.7664C15.7278 31.7664 15.565 31.699 15.445 31.579C15.325 31.4589 15.2576 31.2961 15.2576 31.1264V1.11681C15.2576 0.947068 15.325 0.784282 15.445 0.664258C15.565 0.544235 15.7278 0.476807 15.8976 0.476807C16.0673 0.476807 16.2301 0.544235 16.3501 0.664258C16.4701 0.784282 16.5376 0.947068 16.5376 1.11681V31.1264C16.5376 31.2961 16.4701 31.4589 16.3501 31.579C16.2301 31.699 16.0673 31.7664 15.8976 31.7664Z" fill="#380D75"/>
<path d="M29.888 11.76H13.056C12.8863 11.76 12.7235 11.6926 12.6035 11.5725C12.4834 11.4525 12.416 11.2897 12.416 11.12C12.416 10.9502 12.4834 10.7875 12.6035 10.6674C12.7235 10.5474 12.8863 10.48 13.056 10.48H29.888C30.0578 10.48 30.2205 10.5474 30.3406 10.6674C30.4606 10.7875 30.528 10.9502 30.528 11.12C30.528 11.2897 30.4606 11.4525 30.3406 11.5725C30.2205 11.6926 30.0578 11.76 29.888 11.76Z" fill="#380D75"/>
<path d="M18.56 21.76H1.92003C1.75029 21.76 1.5875 21.6926 1.46748 21.5725C1.34746 21.4525 1.28003 21.2897 1.28003 21.12C1.28003 20.9502 1.34746 20.7875 1.46748 20.6674C1.5875 20.5474 1.75029 20.48 1.92003 20.48H18.56C18.7298 20.48 18.8926 20.5474 19.0126 20.6674C19.1326 20.7875 19.2 20.9502 19.2 21.12C19.2 21.2897 19.1326 21.4525 19.0126 21.5725C18.8926 21.6926 18.7298 21.76 18.56 21.76Z" fill="#380D75"/>
<path d="M10.4192 11.3952C10.2625 11.3957 10.1111 11.3388 9.99359 11.2352C9.05264 10.398 7.83704 9.93555 6.57759 9.93555C5.31815 9.93555 4.10254 10.398 3.16159 11.2352C3.09856 11.2911 3.02513 11.334 2.94551 11.3615C2.86588 11.389 2.78162 11.4006 2.69753 11.3955C2.61343 11.3905 2.53116 11.3689 2.4554 11.3321C2.37964 11.2952 2.31188 11.2438 2.25599 11.1808C2.2001 11.1177 2.15717 11.0443 2.12966 10.9647C2.10215 10.8851 2.09059 10.8008 2.09564 10.7167C2.10069 10.6326 2.12225 10.5503 2.1591 10.4746C2.19595 10.3988 2.24736 10.3311 2.31039 10.2752C3.48607 9.22996 5.00448 8.65259 6.57759 8.65259C8.15071 8.65259 9.66912 9.22996 10.8448 10.2752C10.9715 10.3877 11.0484 10.546 11.0586 10.7151C11.0688 10.8843 11.0115 11.0506 10.8992 11.1776C10.8392 11.2458 10.7654 11.3006 10.6826 11.3381C10.5999 11.3756 10.5101 11.3951 10.4192 11.3952Z" fill="#380D75"/>
<path d="M6.57596 7.92634C6.11458 7.92634 5.66356 7.78953 5.27993 7.5332C4.8963 7.27686 4.5973 6.91253 4.42074 6.48627C4.24417 6.06 4.19798 5.59096 4.28799 5.13844C4.378 4.68592 4.60018 4.27025 4.92643 3.944C5.25267 3.61776 5.66834 3.39558 6.12086 3.30557C6.57338 3.21556 7.04243 3.26175 7.46869 3.43832C7.89495 3.61488 8.25929 3.91388 8.51562 4.29751C8.77195 4.68114 8.90877 5.13216 8.90877 5.59354C8.90792 6.21198 8.66187 6.80485 8.22457 7.24215C7.78727 7.67945 7.1944 7.9255 6.57596 7.92634ZM6.57596 4.54074C6.36774 4.54074 6.16419 4.60249 5.99106 4.71817C5.81793 4.83386 5.68299 4.99828 5.6033 5.19065C5.52362 5.38303 5.50277 5.59471 5.54339 5.79893C5.58402 6.00316 5.68429 6.19075 5.83152 6.33799C5.97876 6.48522 6.16635 6.58549 6.37057 6.62611C6.5748 6.66674 6.78648 6.64589 6.97885 6.5662C7.17123 6.48652 7.33565 6.35158 7.45134 6.17845C7.56702 6.00532 7.62877 5.80177 7.62877 5.59354C7.62877 5.31432 7.51785 5.04654 7.32041 4.8491C7.12297 4.65166 6.85518 4.54074 6.57596 4.54074Z" fill="#380D75"/>
<path d="M6.59842 12.9024C5.32249 12.9024 4.07522 12.524 3.01433 11.8152C1.95343 11.1063 1.12656 10.0988 0.638288 8.91997C0.150012 7.74117 0.0222567 6.44405 0.271178 5.19264C0.520099 3.94123 1.13452 2.79173 2.03673 1.88952C2.93895 0.987299 4.08844 0.372882 5.33985 0.123961C6.59126 -0.12496 7.88838 0.00279518 9.06719 0.491071C10.246 0.979347 11.2535 1.80621 11.9624 2.86711C12.6713 3.928 13.0496 5.17528 13.0496 6.4512C13.0479 8.16165 12.3677 9.80155 11.1582 11.011C9.94877 12.2205 8.30886 12.9007 6.59842 12.9024ZM6.59842 1.28C5.57565 1.28 4.57585 1.58329 3.72546 2.15151C2.87506 2.71973 2.21225 3.52736 1.82085 4.47227C1.42946 5.41718 1.32705 6.45694 1.52658 7.46005C1.72611 8.46317 2.21862 9.38459 2.94183 10.1078C3.66503 10.831 4.58645 11.3235 5.58957 11.523C6.59268 11.7226 7.63244 11.6202 8.57735 11.2288C9.52227 10.8374 10.3299 10.1746 10.8981 9.32417C11.4663 8.47377 11.7696 7.47397 11.7696 6.4512C11.7688 5.07998 11.2237 3.76515 10.2541 2.79555C9.28447 1.82594 7.96965 1.28085 6.59842 1.28Z" fill="#380D75"/>
<path d="M29.2192 30.4928C29.0626 30.4934 28.9111 30.4365 28.7936 30.3328C27.8527 29.4957 26.6371 29.0332 25.3776 29.0332C24.1182 29.0332 22.9026 29.4957 21.9616 30.3328C21.8343 30.4457 21.6674 30.5034 21.4976 30.4932C21.3277 30.483 21.1689 30.4057 21.056 30.2784C20.9432 30.1511 20.8855 29.9842 20.8957 29.8144C20.9059 29.6445 20.9831 29.4857 21.1104 29.3728C22.2861 28.3276 23.8045 27.7502 25.3776 27.7502C26.9508 27.7502 28.4692 28.3276 29.6448 29.3728C29.7413 29.4592 29.8093 29.5728 29.8399 29.6986C29.8704 29.8244 29.8621 29.9566 29.816 30.0775C29.7699 30.1985 29.6881 30.3027 29.5816 30.3763C29.4751 30.4498 29.3487 30.4894 29.2192 30.4896V30.4928Z" fill="#380D75"/>
<path d="M25.3792 27.024C24.9177 27.0246 24.4664 26.8884 24.0823 26.6324C23.6983 26.3765 23.3988 26.0123 23.2217 25.5861C23.0447 25.1599 22.998 24.6908 23.0876 24.2381C23.1773 23.7853 23.3992 23.3694 23.7253 23.0428C24.0515 22.7162 24.4671 22.4937 24.9197 22.4035C25.3723 22.3132 25.8416 22.3592 26.268 22.5357C26.6945 22.7121 27.059 23.0111 27.3154 23.3948C27.5719 23.7785 27.7088 24.2297 27.7088 24.6912C27.708 25.3091 27.4624 25.9015 27.0258 26.3387C26.5891 26.7759 25.9971 27.0223 25.3792 27.024ZM25.3792 23.6416C25.1707 23.641 24.9667 23.7023 24.7931 23.8177C24.6195 23.9331 24.4841 24.0975 24.404 24.29C24.3239 24.4825 24.3028 24.6945 24.3433 24.899C24.3838 25.1035 24.4841 25.2914 24.6316 25.4388C24.779 25.5863 24.9669 25.6866 25.1714 25.7271C25.3759 25.7676 25.5879 25.7465 25.7804 25.6664C25.9729 25.5864 26.1373 25.4509 26.2527 25.2773C26.3682 25.1037 26.4294 24.8997 26.4288 24.6912C26.4288 24.4128 26.3182 24.1459 26.1214 23.949C25.9246 23.7522 25.6576 23.6416 25.3792 23.6416Z" fill="#380D75"/>
<path d="M25.4015 32.0001C24.1255 32.0007 22.8779 31.6229 21.8166 30.9144C20.7553 30.2059 19.9279 29.1986 19.4391 28.0198C18.9504 26.8411 18.8222 25.5439 19.0707 24.2923C19.3193 23.0406 19.9334 21.8908 20.8355 20.9883C21.7376 20.0858 22.8871 19.471 24.1386 19.2219C25.3901 18.9727 26.6874 19.1002 27.8664 19.5884C29.0454 20.0766 30.0531 20.9035 30.7621 21.9644C31.4711 23.0254 31.8495 24.2728 31.8495 25.5489C31.8479 27.2587 31.1681 28.8982 29.9593 30.1075C28.7505 31.3169 27.1114 31.9975 25.4015 32.0001ZM25.4015 20.3777C24.3786 20.377 23.3785 20.6798 22.5277 21.2476C21.6769 21.8154 21.0136 22.6229 20.6217 23.5677C20.2298 24.5126 20.1269 25.5524 20.3261 26.5557C20.5253 27.5591 21.0175 28.4808 21.7406 29.2043C22.4637 29.9278 23.3851 30.4207 24.3883 30.6205C25.3915 30.8203 26.4314 30.718 27.3765 30.3267C28.3216 29.9354 29.1295 29.2726 29.6978 28.4222C30.2662 27.5717 30.5695 26.5718 30.5695 25.5489C30.5679 24.1784 30.0229 22.8646 29.0542 21.8953C28.0855 20.9259 26.772 20.3802 25.4015 20.3777Z" fill="#380D75"/>
</g>
<defs>
<clipPath id="clip0_110_522">
<rect width="32" height="32" fill="white"/>
</clipPath>
</defs>
</svg>
