<svg width="32" height="32" viewBox="0 0 32 32" fill="none" xmlns="http://www.w3.org/2000/svg">
<g clip-path="url(#clip0_7998_15914)">
<path d="M0.639282 6.34473H31.3549" stroke="#171321" stroke-width="1.27982" stroke-linecap="round" stroke-linejoin="round"/>
<path d="M28.7696 0.640137H3.22451C1.79673 0.640137 0.639282 1.79758 0.639282 3.22536V28.7705C0.639282 30.1983 1.79673 31.3557 3.22451 31.3557H28.7696C30.1974 31.3557 31.3549 30.1983 31.3549 28.7705V3.22536C31.3549 1.79758 30.1974 0.640137 28.7696 0.640137Z" stroke="#171321" stroke-width="1.27982" stroke-linecap="round" stroke-linejoin="round"/>
<path d="M19.0533 23.7505H8.4052C8.19377 23.7526 7.98402 23.7128 7.78808 23.6333C7.59213 23.5539 7.41388 23.4364 7.26363 23.2876C7.11338 23.1388 6.99411 22.9618 6.91272 22.7666C6.83132 22.5715 6.78942 22.3621 6.78943 22.1507V13.9983C6.78942 13.7868 6.83132 13.5775 6.91272 13.3824C6.99411 13.1872 7.11338 13.0101 7.26363 12.8614C7.41388 12.7126 7.59213 12.5951 7.78808 12.5157C7.98402 12.4362 8.19377 12.3964 8.4052 12.3985H23.5902C24.0145 12.3985 24.4214 12.5671 24.7214 12.8671C25.0214 13.1671 25.19 13.574 25.19 13.9983V17.5978" stroke="#171321" stroke-width="1.27982" stroke-linecap="round" stroke-linejoin="round"/>
<path d="M22.359 23.3875L21.9712 20.5156L24.8463 20.9002" stroke="#171321" stroke-width="1.27982" stroke-linecap="round" stroke-linejoin="round"/>
<path d="M21.9712 20.5156L25.1379 23.6824" stroke="#171321" stroke-width="1.27982" stroke-linecap="round" stroke-linejoin="round"/>
<path d="M10.8934 19.917H13.1608" stroke="#171321" stroke-width="1.27982" stroke-linecap="round" stroke-linejoin="round"/>
<path d="M16.285 19.917H18.2285" stroke="#171321" stroke-width="1.27982" stroke-linecap="round" stroke-linejoin="round"/>
<path d="M10.8934 16.7046H21.2983" stroke="#171321" stroke-width="1.27982" stroke-linecap="round" stroke-linejoin="round"/>
<path d="M12.7643 3.49072H27.6933" stroke="#171321" stroke-width="1.27982" stroke-linecap="round" stroke-linejoin="round"/>
</g>
<defs>
<clipPath id="clip0_7998_15914">
<rect width="31.9954" height="31.9954" fill="white"/>
</clipPath>
</defs>
</svg>
