<svg width="32" height="32" viewBox="0 0 32 32" fill="none" xmlns="http://www.w3.org/2000/svg">
<g clip-path="url(#clip0_1145_7029)">
<path d="M3.26468 5.35608C3.54944 14.2124 2.45199 17.6999 4.71087 22.3968C6.31064 25.7211 11.7499 29.8389 15.9956 31.3555" stroke="#171321" stroke-width="1.27982" stroke-linecap="round" stroke-linejoin="round"/>
<path d="M5.34473 5.47766C7.35651 5.44219 9.33966 4.99459 11.1717 4.16252C13.0036 3.33045 14.6456 2.13157 15.996 0.639954C17.5821 2.3923 19.5676 3.73604 21.7839 4.55707C24.0003 5.37811 26.382 5.6522 28.727 5.35607C28.4422 14.2124 29.5396 17.6999 27.2808 22.3968C25.681 25.7211 20.2418 29.8389 15.996 31.3555" stroke="#171321" stroke-width="1.27982" stroke-linecap="round" stroke-linejoin="round"/>
<path d="M21.7579 12.9102L20.3053 11.4576C20.2253 11.3769 20.1301 11.3128 20.0252 11.2691C19.9204 11.2254 19.8079 11.2029 19.6942 11.2029C19.5806 11.2029 19.4681 11.2254 19.3632 11.2691C19.2583 11.3128 19.1631 11.3769 19.0831 11.4576L14.6262 15.9017L12.9304 14.2028C12.768 14.0414 12.5483 13.9508 12.3193 13.9508C12.0903 13.9508 11.8706 14.0414 11.7082 14.2028L10.2556 15.6586C10.0944 15.8205 10.0039 16.0396 10.0039 16.2681C10.0039 16.4965 10.0944 16.7157 10.2556 16.8776L13.6471 20.2691C13.7755 20.3975 13.9278 20.4993 14.0956 20.5688C14.2633 20.6383 14.443 20.674 14.6246 20.674C14.8061 20.674 14.9859 20.6383 15.1536 20.5688C15.3213 20.4993 15.4737 20.3975 15.602 20.2691L21.7579 14.1292C21.8385 14.0494 21.9025 13.9545 21.9461 13.8499C21.9898 13.7453 22.0123 13.633 22.0123 13.5197C22.0123 13.4063 21.9898 13.2941 21.9461 13.1894C21.9025 13.0848 21.8385 12.9899 21.7579 12.9102V12.9102Z" stroke="#171321" stroke-width="1.27982" stroke-linecap="round" stroke-linejoin="round"/>
</g>
<defs>
<clipPath id="clip0_1145_7029">
<rect width="31.9954" height="31.9954" fill="white"/>
</clipPath>
</defs>
</svg>
