<svg width="32" height="32" viewBox="0 0 32 32" fill="none" xmlns="http://www.w3.org/2000/svg">
<g clip-path="url(#clip0_1386_12936)">
<path d="M9.33341 12.6666H2.66675V31.6666H9.33341V12.6666Z" stroke="#171321" stroke-miterlimit="10"/>
<path d="M19.3334 17.6666H12.6667V31.6666H19.3334V17.6666Z" stroke="#171321" stroke-miterlimit="10"/>
<path d="M17.4368 6.82332L24.4068 2.73999" stroke="#171321" stroke-miterlimit="10"/>
<path d="M7.90674 4.87659L14.4267 7.12325" stroke="#171321" stroke-miterlimit="10"/>
<path d="M4.88333 5.15332L0.16333 7.80999" stroke="#171321" stroke-miterlimit="10"/>
<path d="M27.0034 2.9967L31.8034 6.56337" stroke="#171321" stroke-miterlimit="10"/>
<path d="M15.9999 9.33333C16.9204 9.33333 17.6666 8.58714 17.6666 7.66667C17.6666 6.74619 16.9204 6 15.9999 6C15.0794 6 14.3333 6.74619 14.3333 7.66667C14.3333 8.58714 15.0794 9.33333 15.9999 9.33333Z" stroke="#171321" stroke-miterlimit="10"/>
<path d="M25.6667 3.66665C26.5871 3.66665 27.3333 2.92045 27.3333 1.99998C27.3333 1.07951 26.5871 0.333313 25.6667 0.333313C24.7462 0.333313 24 1.07951 24 1.99998C24 2.92045 24.7462 3.66665 25.6667 3.66665Z" stroke="#171321" stroke-miterlimit="10"/>
<path d="M6.33342 5.99996C7.25389 5.99996 8.00008 5.25377 8.00008 4.33329C8.00008 3.41282 7.25389 2.66663 6.33342 2.66663C5.41294 2.66663 4.66675 3.41282 4.66675 4.33329C4.66675 5.25377 5.41294 5.99996 6.33342 5.99996Z" stroke="#171321" stroke-miterlimit="10"/>
<path d="M22.6667 9.33325H29.3334V27.6666C29.3334 29.8733 27.5401 31.6666 25.3334 31.6666H22.6667V9.33325Z" stroke="#171321" stroke-miterlimit="10"/>
</g>
<defs>
<clipPath id="clip0_1386_12936">
<rect width="32" height="32" fill="white"/>
</clipPath>
</defs>
</svg>
